[gd_scene load_steps=3 format=2]

[ext_resource path="res://elements/vehicles/Rocket.tscn" type="PackedScene" id=1]
[ext_resource path="res://elements/poi/LandingPad.tscn" type="PackedScene" id=2]

[node name="Spatial" type="Spatial"]

[node name="LandingPad" parent="." instance=ExtResource( 2 )]

[node name="Rocket" parent="." instance=ExtResource( 1 )]
transform = Transform( 1, 0, 0, 0, 1, 0, 0, 0, 1, 0, 3.72679, 0 )
