[gd_scene load_steps=3 format=2]

[ext_resource path="res://elements/poi/Orb.tscn" type="PackedScene" id=1]

[sub_resource type="GDScript" id=1]
script/source = "tool
extends Spatial

export (int) var isDebug = true
export (Color) var color = Color.green setget changeColor



func _ready():
	if isDebug:
		changeColor(color)
	else:
		$Orb.queue_free()
	
	
func reposition(newPos:Vector3):
	var upVector = newPos.normalized()
	var facing:=Vector3(randf(),randf(),randf())
	facing = (facing - facing.project(upVector)).normalized()
	var left = upVector.cross(facing)
	transform.origin = newPos
	transform.basis = Basis(left,upVector,facing)

func changeColor(value):
	print('hitme')
	color = value
	if has_node(\"Orb\"):
		$Orb/MeshInstance.set_surface_material(0 ,$Orb/MeshInstance.get_surface_material(0).duplicate())
		$Orb/MeshInstance.get_surface_material(0).emission = color
"

[node name="SpawnPoint" type="Spatial"]
script = SubResource( 1 )
color = Color( 0.803922, 0, 1, 1 )

[node name="Orb" parent="." instance=ExtResource( 1 )]
