; Engine configuration file.
; It's best edited using the editor UI and not directly,
; since the parameters that go here are not all obvious.
;
; Format:
;   [section] ; section goes between []
;   param=value ; assign values to parameters

config_version=4

_global_script_classes=[ {
"base": "Reference",
"class": "ControlConsts",
"language": "GDScript",
"path": "res://elements/globals/ControlConsts.gd"
}, {
"base": "Reference",
"class": "ControlState",
"language": "GDScript",
"path": "res://elements/player/ControlState.gd"
}, {
"base": "ScriptedDoublePassStreamer",
"class": "DoublePassMoon",
"language": "GDScript",
"path": "res://elements/moonScript/DoublePassMoon.gd"
}, {
"base": "VoxelStream",
"class": "FastMoon",
"language": "GDScript",
"path": "res://elements/moonScript/FastMoon.gd"
}, {
"base": "Reference",
"class": "GD_SDF",
"language": "GDScript",
"path": "res://elements/globals/GD_SDF.gd"
}, {
"base": "VoxelStream",
"class": "NoiseMoon",
"language": "GDScript",
"path": "res://elements/moonScript/NoiseMoon.gd"
}, {
"base": "Node",
"class": "PlayerController",
"language": "GDScript",
"path": "res://elements/player/PlayerController.gd"
}, {
"base": "VoxelStream",
"class": "SDFThing",
"language": "GDScript",
"path": "res://elements/moonScript/SDFThing.gd"
}, {
"base": "VoxelStream",
"class": "ScriptedDoublePassStreamer",
"language": "GDScript",
"path": "res://elements/moonScript/DoublePassStreamer.gd"
}, {
"base": "VoxelStream",
"class": "SignWave",
"language": "GDScript",
"path": "res://elements/moonScript/signWave.gd"
}, {
"base": "Reference",
"class": "SpawnPoint",
"language": "GDScript",
"path": "res://elements/globals/SpawnPoint.gd"
}, {
"base": "Reference",
"class": "Spawners",
"language": "GDScript",
"path": "res://elements/globals/Spawners.gd"
}, {
"base": "Reference",
"class": "TelemetryContainer",
"language": "GDScript",
"path": "res://elements/player/TelemetryContainer.gd"
}, {
"base": "VoxelStream",
"class": "moonOne",
"language": "GDScript",
"path": "res://elements/moonScript/moonOne.gd"
}, {
"base": "VoxelStream",
"class": "moonTwo",
"language": "GDScript",
"path": "res://elements/moonScript/moonTwo.gd"
} ]
_global_script_class_icons={
"ControlConsts": "",
"ControlState": "",
"DoublePassMoon": "",
"FastMoon": "",
"GD_SDF": "",
"NoiseMoon": "",
"PlayerController": "",
"SDFThing": "",
"ScriptedDoublePassStreamer": "",
"SignWave": "",
"SpawnPoint": "",
"Spawners": "",
"TelemetryContainer": "",
"moonOne": "",
"moonTwo": ""
}

[application]

config/name="Lunar Game Jam"
run/main_scene="res://elements/game/GameCoordinator.tscn"
config/icon="res://icon.png"

[autoload]

Globals="*res://elements/globals/Globals.gd"

[display]

window/size/width=1920
window/size/height=1080

[input]

fore={
"deadzone": 0.5,
"events": [ Object(InputEventKey,"resource_local_to_scene":false,"resource_name":"","device":0,"alt":false,"shift":false,"control":false,"meta":false,"command":false,"pressed":false,"scancode":87,"unicode":0,"echo":false,"script":null)
 ]
}
back={
"deadzone": 0.5,
"events": [ Object(InputEventKey,"resource_local_to_scene":false,"resource_name":"","device":0,"alt":false,"shift":false,"control":false,"meta":false,"command":false,"pressed":false,"scancode":83,"unicode":0,"echo":false,"script":null)
 ]
}
left={
"deadzone": 0.5,
"events": [ Object(InputEventKey,"resource_local_to_scene":false,"resource_name":"","device":0,"alt":false,"shift":false,"control":false,"meta":false,"command":false,"pressed":false,"scancode":65,"unicode":0,"echo":false,"script":null)
 ]
}
right={
"deadzone": 0.5,
"events": [ Object(InputEventKey,"resource_local_to_scene":false,"resource_name":"","device":0,"alt":false,"shift":false,"control":false,"meta":false,"command":false,"pressed":false,"scancode":68,"unicode":0,"echo":false,"script":null)
 ]
}
up={
"deadzone": 0.5,
"events": [ Object(InputEventKey,"resource_local_to_scene":false,"resource_name":"","device":0,"alt":false,"shift":false,"control":false,"meta":false,"command":false,"pressed":false,"scancode":32,"unicode":0,"echo":false,"script":null)
 ]
}
down={
"deadzone": 0.5,
"events": [ Object(InputEventKey,"resource_local_to_scene":false,"resource_name":"","device":0,"alt":false,"shift":false,"control":false,"meta":false,"command":false,"pressed":false,"scancode":90,"unicode":0,"echo":false,"script":null)
 ]
}
esc={
"deadzone": 0.5,
"events": [ Object(InputEventKey,"resource_local_to_scene":false,"resource_name":"","device":0,"alt":false,"shift":false,"control":false,"meta":false,"command":false,"pressed":false,"scancode":16777217,"unicode":0,"echo":false,"script":null)
, Object(InputEventJoypadButton,"resource_local_to_scene":false,"resource_name":"","device":0,"button_index":11,"pressure":0.0,"pressed":false,"script":null)
 ]
}
run={
"deadzone": 0.5,
"events": [ Object(InputEventKey,"resource_local_to_scene":false,"resource_name":"","device":0,"alt":false,"shift":false,"control":false,"meta":false,"command":false,"pressed":false,"scancode":16777237,"unicode":0,"echo":false,"script":null)
 ]
}
equal={
"deadzone": 0.5,
"events": [ Object(InputEventKey,"resource_local_to_scene":false,"resource_name":"","device":0,"alt":false,"shift":false,"control":false,"meta":false,"command":false,"pressed":false,"scancode":61,"unicode":0,"echo":false,"script":null)
 ]
}
Thruster={
"deadzone": 0.5,
"events": [ Object(InputEventJoypadMotion,"resource_local_to_scene":false,"resource_name":"","device":-1,"axis":0,"axis_value":-1.0,"script":null)
 ]
}
thrustUp={
"deadzone": 0.5,
"events": [ Object(InputEventKey,"resource_local_to_scene":false,"resource_name":"","device":0,"alt":false,"shift":false,"control":false,"meta":false,"command":false,"pressed":false,"scancode":82,"unicode":0,"echo":false,"script":null)
 ]
}
thrustDown={
"deadzone": 0.5,
"events": [ Object(InputEventKey,"resource_local_to_scene":false,"resource_name":"","device":0,"alt":false,"shift":false,"control":false,"meta":false,"command":false,"pressed":false,"scancode":70,"unicode":0,"echo":false,"script":null)
 ]
}
thrustMax={
"deadzone": 0.5,
"events": [ Object(InputEventKey,"resource_local_to_scene":false,"resource_name":"","device":0,"alt":false,"shift":false,"control":false,"meta":false,"command":false,"pressed":false,"scancode":90,"unicode":0,"echo":false,"script":null)
 ]
}
thrustMin={
"deadzone": 0.5,
"events": [ Object(InputEventKey,"resource_local_to_scene":false,"resource_name":"","device":0,"alt":false,"shift":false,"control":false,"meta":false,"command":false,"pressed":false,"scancode":88,"unicode":0,"echo":false,"script":null)
 ]
}
stablize={
"deadzone": 0.5,
"events": [ Object(InputEventKey,"resource_local_to_scene":false,"resource_name":"","device":0,"alt":false,"shift":false,"control":false,"meta":false,"command":false,"pressed":false,"scancode":16777218,"unicode":0,"echo":false,"script":null)
, Object(InputEventJoypadButton,"resource_local_to_scene":false,"resource_name":"","device":0,"button_index":0,"pressure":0.0,"pressed":false,"script":null)
 ]
}
alternateControls={
"deadzone": 0.5,
"events": [ Object(InputEventJoypadButton,"resource_local_to_scene":false,"resource_name":"","device":-1,"button_index":4,"pressure":0.0,"pressed":false,"script":null)
, Object(InputEventJoypadButton,"resource_local_to_scene":false,"resource_name":"","device":-1,"button_index":5,"pressure":0.0,"pressed":false,"script":null)
 ]
}
zoomOut={
"deadzone": 0.5,
"events": [ Object(InputEventMouseButton,"resource_local_to_scene":false,"resource_name":"","device":-1,"alt":false,"shift":false,"control":false,"meta":false,"command":false,"button_mask":0,"position":Vector2( 0, 0 ),"global_position":Vector2( 0, 0 ),"factor":1.0,"button_index":5,"pressed":false,"doubleclick":false,"script":null)
 ]
}
zoomIn={
"deadzone": 0.5,
"events": [ Object(InputEventMouseButton,"resource_local_to_scene":false,"resource_name":"","device":-1,"alt":false,"shift":false,"control":false,"meta":false,"command":false,"button_mask":0,"position":Vector2( 0, 0 ),"global_position":Vector2( 0, 0 ),"factor":1.0,"button_index":4,"pressed":false,"doubleclick":false,"script":null)
 ]
}
rollLeft={
"deadzone": 0.5,
"events": [ Object(InputEventKey,"resource_local_to_scene":false,"resource_name":"","device":0,"alt":false,"shift":false,"control":false,"meta":false,"command":false,"pressed":false,"scancode":81,"unicode":0,"echo":false,"script":null)
 ]
}
rollRight={
"deadzone": 0.5,
"events": [ Object(InputEventKey,"resource_local_to_scene":false,"resource_name":"","device":0,"alt":false,"shift":false,"control":false,"meta":false,"command":false,"pressed":false,"scancode":69,"unicode":0,"echo":false,"script":null)
 ]
}

[physics]

3d/active_soft_world=false
3d/default_gravity=0.0

[rendering]

environment/default_environment="res://default_env.tres"
