[gd_scene load_steps=3 format=2]

[ext_resource path="res://assets/sfx/RocketThrusterContinuationLoop.wav" type="AudioStream" id=1]

[sub_resource type="GDScript" id=1]
script/source = "extends AudioStreamPlayer


export (float) var volume = -30.0
export (float) var volumeRange = 30.0
export (float) var warmUpMS = .25

var life:float = 0.0
var thrustValue:float = 0.0

func _ready():
	play(randf()*stream.get_length())



func setVolume(value):
	thrustValue = value


func _process(delta):
	life = min(warmUpMS,life+delta)
	var lifeFadeIn = life/warmUpMS
	
	volume_db = (thrustValue*volumeRange*lifeFadeIn) + volume



func _on_ThrusterHum_finished():
	play(0)
"

[node name="ThrusterHum" type="AudioStreamPlayer"]
stream = ExtResource( 1 )
script = SubResource( 1 )
[connection signal="finished" from="." to="." method="_on_ThrusterHum_finished"]
